…
Camaro Z28          13.3 3.840
Pontiac Firebird    19.2 3.845
Fiat X1-9           27.3 1.935
Porsche 914-2       26.0 2.140
Lotus Europa        30.4 1.513
Ford Pantera L      15.8 3.170
Ferrari Dino        19.7 2.770
Maserati Bora       15.0 3.570
Volvo 142E          21.4 2.780
```
然后进行分组
```
> a <- as_tibble(a)
> a
# A tibble: 32 × 2
     mpg    wt
   <dbl> <dbl>
 1  21    2.62
 2  21    2.88
 3  22.8  2.32
 4  21.4  3.22
 5  18.7  3.44
 6  18.1  3.46
 7  14.3  3.57
 8  24.4  3.19
 9  22.8  3.15
10  19.2  3.44
# … with 22 more rows
# ℹ Use `print(n = ...)` to see more rows
```
使用mutate 进行新增变量 wt1
```
> a <- a %>% mutate(wt1 = wt-1)
> a
# A tibble: 32 × 3
     mpg    wt   wt1
   <dbl> <dbl> <dbl>
 1  21    2.62  1.62
 2  21    2.88  1.88
 3  22.8  2.32  1.32
 4  21.4  3.22  2.22
 5  18.7  3.44  2.44
 6  18.1  3.46  2.46
 7  14.3  3.57  2.57
 8  24.4  3.19  2.19
 9  22.8  3.15  2.15
10  19.2  3.44  2.44
# … with 22 more rows
# ℹ Use `print(n = ...)` to see more rows
```
或者进行其他运算
```
> a <- a %>% mutate(mpgz = scale(mpg))
> a
# A tibble: 32 × 4
     mpg    wt   wt1 mpgz[,1]
   <dbl> <dbl> <dbl>    <dbl>
 1  21    2.62  1.62    0.151
 2  21    2.88  1.88    0.151
 3  22.8  2.32  1.32    0.450
 4  21.4  3.22  2.22    0.217
 5  18.7  3.44  2.44   -0.231
 6  18.1  3.46  2.46   -0.330
 7  14.3  3.57  2.57   -0.961
 8  24.4  3.19  2.19    0.715
 9  22.8  3.15  2.15    0.450
10  19.2  3.44  2.44   -0.148
# … with 22 more rows
# ℹ Use `print(n = ...)` to see more rows
```
…
